…
``` r
# Get which genes had the highest prediction values
top_predicted_genes <- lapply(1:n, get_top_predicted_genes, predictions_list)
top_predicted_genes <- reduce(top_predicted_genes, full_join, by = c("gene","true_target"))
top_predicted_genes
```

```
## # A tibble: 234 × 12
##    gene      true_target predicted_top_target_round1 predicted_top_target_round2
##    <chr>     <lgl>       <lgl>                       <lgl>                      
##  1 Trim12a   FALSE       TRUE                        TRUE                       
##  2 Trim30c   TRUE        TRUE                        TRUE                       
##  3 Gbp8      TRUE        TRUE                        TRUE                       
##  4 Gbp6      TRUE        TRUE                        TRUE                       
##  5 Rpl34-ps1 FALSE       TRUE                        TRUE                       
##  6 Gimap9    FALSE       TRUE                        TRUE                       
##  7 Ms4a4c    TRUE        TRUE                        TRUE                       
##  8 Ly6c2     TRUE        TRUE                        TRUE                       
##  9 H2-Q4     FALSE       TRUE                        TRUE                       
## 10 H2-D1     TRUE        TRUE                        TRUE                       
## # ℹ 224 more rows
## # ℹ 8 more variables: predicted_top_target_round3 <lgl>,
## #   predicted_top_target_round4 <lgl>, predicted_top_target_round5 <lgl>,
## #   predicted_top_target_round6 <lgl>, predicted_top_target_round7 <lgl>,
## #   predicted_top_target_round8 <lgl>, predicted_top_target_round9 <lgl>,
## #   predicted_top_target_round10 <lgl>
```
…
